{
  "defaultSeverity": "error",
  "extends": [
    "tslint:recommended",
    "tslint-config-airbnb"
  ],
  "jsRules": {},
  "rules": {
    "quotemark": [
      true,
      "single"
    ],
    "no-reference": true,
    "import-name": false,
    "interface-name": false,
    "max-line-length": [
      true,
      120
    ]
  },
  "linterOptions": {
    "exclude": [
      "./src/types/phaser.d.ts",
      "./src/client/example.ts"
    ]
  }
}
